{
  "type": "service_account",
  "project_id": "cab432project1",
  "private_key_id": "db13893fe8c9447aba4809a4cf258ac12dfe570a",
  "private_key": "-----BEGIN PRIVATE KEY-----\nMIIEvgIBADANBgkqhkiG9w0BAQEFAASCBKgwggSkAgEAAoIBAQCvxKM2nyE4U/Ph\n0WLy6wFwMrF91UwGUaQyxvgV041UmrtvBg4a/dOGk3Uk4bshKz2dm6BOBjnrQi/6\ndN9fV19hlkSsBSq/OyTz6MdAXuei8EuaAwiB9vntkNQ5awjfLbbwTDz1/poHk1+P\nFNI8MNqdMGI7BJjoDthWkyT4VECuUF9JcVSGWrWB06cpTWr14+zZf1yxqL+T5j24\nGGmdmyR4Pr1jVDmXW0b7XfVED/shFd9TB7h8w4RAuWeqTHdJc3Lgv8zH8gVxh2wE\n3ZaJR7TxsAPa08FL7JQGi7F2s1w9P0bVmXVITMtsHXSzqcqwOmiyO79JF8wBWeOt\n7xzRCLGVAgMBAAECggEAA7faXJSGBCDxZ1JeTLya39Kl0Q2L201c/cPhW5AtAg6G\nqzz+TY+XTmSR4cr9M+DW37MerE/dkqBhVmPAzuoJqpRzxvBZYEjz3uoDcM4hJjxv\nWsLjDdM2B4uHd4slWYm2VXWahGrhu22STpBoRqu9yQu+x8Zw3xB/xehnVnIJma8+\n9iearGcEk2gEafZkmNWKnWjsyrT3n5di3YfEHkrzU6P8SxeSR13iCeN/aHDqnvW5\nF0XuZ10pHifnU900s2g5x4t6PN6bKiA9V/N6/mbyPrD1CpvWU5l4WW1a4QE2Wf/J\ngxRsSkvzbMpnhdrcduApcSL5jwhu9dCEvvIM4IbOMQKBgQDjaFXKqmhgW5hsxjIC\nmcA0HB4ZA3KWFW7ankoDVbmrOmINJS7XCfEHsgEuQNOb9HvZuSkXlsl1yfIiKNtY\nabaSQImHGTuID5jYWM7L8+46f0yryiSYkuAgneA1yIVjy+aVt3teyx/Tm534adla\n63vQfjPAd/90ruXlWso7XMLscQKBgQDF3ilVDns9FMOhOUrfsWjhLu0BtALb6YjJ\n5yka2nGlvLmEvz7gP3h2ctYuHlNTCRBLg7zTBN0v1VqxEIS9E+VtIUJ5V7UFiKfV\nY8wkA7ffOR9sruU0FKPCoUE+hgky/GCK9Z43jZn3bRo7H6BWFqBdepHgev7ZfVaY\nqbFtLGB5ZQKBgQCO7dnWOorF3WwNGfj+x3IVjoKgSBlyGWCGSazNMckzxMsx5eft\nwlLa+ldhod8ei2h4bLdWGzDeNqJYNAPBKxhUDfoijoprNxpjCFZZvCREYhRnePLN\nbqst9OyiATlNgy+XdC43Y0XKs2lzY9v4GD/GyDtwwjsuNGtMX2byLphZEQKBgQCD\nugkuNPvaiC5M8QVlsoguEb17OsoEeY61S41T8UVjnyaqt182j0q1IHJyNYInb4tH\nmqZknYJbS+CarHKSJeLBKjlE6xz6WCXTrCLFfyw0EaVYB39TksIK2qvC4hzRsq7b\nE/WG6mAsFpg18DIf3eRZFzZyia+MPyMdcytJkReQ+QKBgFqdSTFohGU5SL8RyM1F\nOz68yk/2AL3uY/4Q/Z24HBQHrFaesm9knvfN1my/ru05xqlusabz9JOQrBVE12Jz\n3M4pPOyRZO5jUz78uVk93RjjRKiGb4j2GkBdFR2kU5EdEsDsJpkF7qPiauHdrUEa\n8iSFZcn3u+aJxYhftyg2VB/N\n-----END PRIVATE KEY-----\n",
  "client_email": "natural-language-432@cab432project1.iam.gserviceaccount.com",
  "client_id": "111786332393368279475",
  "auth_uri": "https://accounts.google.com/o/oauth2/auth",
  "token_uri": "https://accounts.google.com/o/oauth2/token",
  "auth_provider_x509_cert_url": "https://www.googleapis.com/oauth2/v1/certs",
  "client_x509_cert_url": "https://www.googleapis.com/robot/v1/metadata/x509/natural-language-432%40cab432project1.iam.gserviceaccount.com"
}
